[
    {
        "name": "pedrito",
        "full_name": "perez"
    },
    {
        "name": "pedrito2",
        "full_name": "perez"
    },
    {
        "name": "pedrit3",
        "full_name": "perez"
    },
    {
        "name": "pedrito4",
        "full_name": "perez"
    }
]